<svg id="post-it-1" xmlns="http://www.w3.org/2000/svg" width="192.756" height="192.756" viewBox="0 0 192.756 192.756">
  <path id="Trazado_1" data-name="Trazado 1" d="M0,0H192.756V192.756H0Z" fill="#f1f1f1" fill-rule="evenodd"/>
  <path id="Trazado_2" data-name="Trazado 2" d="M15.407,70.835H34.129c9.87,0,13.33,7.224,13.33,12.413,0,8.8-5.9,12.922-14.245,12.922H26.6v10.988H15.407ZM26.6,87.521h4.324c2.9,0,5.952-.2,5.952-3.867,0-3.307-2.544-3.51-5.291-3.51H26.6Zm35.961,20.3c-9.921,0-14.911-6.666-14.911-13.992s4.99-13.735,14.911-13.735,14.91,6.615,14.91,13.94-4.99,13.787-14.91,13.787Zm0-20.606c-3.816,0-4.53,3.817-4.53,6.614s.714,6.666,4.53,6.666,4.632-3.97,4.632-6.768S66.376,87.214,62.561,87.214Zm32.658,1.223a3.293,3.293,0,0,0-1.272-2.086A5.271,5.271,0,0,0,91.4,85.69c-1.424,0-2.95.2-2.95,1.933A1.611,1.611,0,0,0,89.519,89.1c1.678.713,5.494.916,8.853,2.035,3.357,1.068,6.924,3.053,6.924,7.376,0,7.326-7.637,9.311-14.047,9.311-6.207,0-13.024-2.492-13.176-9.311h9.615a3.232,3.232,0,0,0,1.221,2.34,4.151,4.151,0,0,0,2.7.764c1.323,0,3.409-.508,3.409-2.035s-.865-1.984-5.545-2.8c-7.682-1.324-10.785-3.765-10.785-8.293,0-6.665,7.173-8.395,12.464-8.395,5.7,0,13.182,1.577,13.436,8.343Zm24.873-7.682h4.982v6.207h-4.982V96.17c0,2.441.559,3.51,3.1,3.51.764,0,1.115-.461,1.879-.562v7.426a17.079,17.079,0,0,1-6.051.922c-5.094,0-9-2.029-9-7.887V86.962h-4.477V80.755h4.477V73.127h10.072v7.628Zm7.178,9.572h15.923V98.67H127.27Zm18.767-9.572h10.072v26.4H146.037Zm10.072-2.849H146.037V70.937h10.072Zm15.78,2.849h4.982v6.207h-4.982V96.17c0,2.441.561,3.51,3.1,3.51.762,0,1.115-.461,1.879-.562v7.426a17.087,17.087,0,0,1-6.051.922c-5.094,0-9.006-2.029-9.006-7.887V86.962h-4.477V80.755h4.477V73.127h10.074v7.628Z" fill="#0d0e0e" fill-rule="evenodd"/>
  <path id="Trazado_3" data-name="Trazado 3" d="M175.154,78.542v-5.18h-1.935v-.694h4.654v.694H175.93v5.18h-.776Zm3.492,0V72.668h1.17l1.391,4.159c.129.387.223.677.279.87.068-.213.172-.528.314-.942l1.4-4.086h1.047v5.874h-.75V73.626L181.8,78.543h-.7l-1.7-5v5h-.75ZM15.721,112.885h2.4l4.6,7.375h.032v-7.375H25v10.992h-2.41l-4.584-7.357h-.031v7.357H15.721V112.885ZM28.83,119.91c0-1.281.447-2.562,1.926-2.562s1.941,1.281,1.941,2.562-.447,2.549-1.941,2.549c-1.479,0-1.926-1.281-1.926-2.549Zm-2.185,0a3.9,3.9,0,0,0,4.11,4.189,4.2,4.2,0,0,0,0-8.392A3.9,3.9,0,0,0,26.645,119.91Zm12.422-3.982h1.6v1.453h-1.6v3.936c0,.736.185.922.923.922a3.378,3.378,0,0,0,.677-.062v1.709a8.45,8.45,0,0,1-1.277.076c-1.338,0-2.508-.307-2.508-1.893v-4.688H35.56v-1.453h1.323v-2.385h2.185v2.385h0Zm4.442,3.111a1.721,1.721,0,0,1,1.815-1.691c1.062,0,1.539.584,1.738,1.691H43.509Zm5.738,1.385c.154-2.445-1.154-4.717-3.861-4.717a3.985,3.985,0,0,0-4.062,4.193,3.887,3.887,0,0,0,4.062,4.2,3.574,3.574,0,0,0,3.723-2.682H47.186a1.8,1.8,0,0,1-1.723,1.041c-1.215,0-1.893-.637-1.954-2.035h5.738Zm2.974.885c.016.953.817,1.338,1.68,1.338.632,0,1.433-.246,1.433-1.016,0-.662-.909-.893-2.469-1.256-1.261-.277-2.523-.723-2.523-2.123,0-2.025,1.754-2.545,3.46-2.545,1.734,0,3.328.58,3.5,2.529H55.23c-.062-.846-.706-1.076-1.489-1.076-.492,0-1.213.092-1.213.738,0,.783,1.229.891,2.468,1.209,1.278.293,2.524.754,2.524,2.232,0,2.086-1.815,2.76-3.633,2.76-1.848,0-3.641-.689-3.732-2.791h2.066Z" fill="#0d0e0e" fill-rule="evenodd"/>
</svg>
